{
    "type": "blueprint",
    "name": "maze_solver_system",
    "encryption": false,
    "broker_list": [
        {
            "name": "maze_broker",
            "local_addr": "tcp://127.0.0.1:10500",
            "remote_addr": "tcp://pitsa.space:10500"
        }
    ],
    "bus_list": [],
    "services": [
        {
            "name": "maze_generator",
            "broker": "maze_broker",
            "balancer": {
                "name": "generator_balancer",
                "local_addr": "tcp://127.0.0.1:10600",
                "remote_addr": "tcp://127.0.0.1:10600"
            }
        },
        {
            "name": "maze_solver",
            "broker": "maze_broker",
            "balancer": {
                "name": "solver_balancer",
                "local_addr": "tcp://127.0.0.1:10700",
                "remote_addr": "tcp://127.0.0.1:10700"
            }
        }
    ],
    "requesters": [
        {
            "name": "maze_requester",
            "broker_list": [
                "maze_broker"
            ],
            "bus_list": []
        }
    ]
}
